<?xml version="1.0" encoding="utf-8"?>
<!-- Generator: Adobe Illustrator 21.1.0, SVG Export Plug-In . SVG Version: 6.00 Build 0)  -->
<svg version="1.1" id="Capa_1" xmlns="http://www.w3.org/2000/svg" xmlns:xlink="http://www.w3.org/1999/xlink" x="0px" y="0px"
	 viewBox="0 0 14.6 20" style="enable-background:new 0 0 14.6 20;" xml:space="preserve">
<style type="text/css">
	.st0{fill:#1D1D1B;}
</style>
<path d="M14.5,19.9H0.2V0.2h14.3V19.9z M12.7,2H2v4.6h10.7V2z M4.3,8.4H2v2.3h2.3V8.4z M8.5,8.4H6.2v2.3h2.3V8.4z M12.7,8.4h-2.3
	v2.3h2.3V8.4z M4.3,11.5H2v2.3h2.3V11.5z M8.5,11.5H6.2v2.3h2.3V11.5z M12.7,11.5h-2.3v2.3h2.3V11.5z M4.3,14.7H2v2.3h2.3V14.7z
	 M8.5,14.7H6.2v2.3h2.3V14.7z M12.7,14.7h-2.3v2.3h2.3V14.7z"/>
<g>
	<path class="st0" d="M8,5.1c0-0.1,0-0.2-0.1-0.3C7.8,4.7,7.6,4.7,7.5,4.6C7.3,4.5,7.1,4.5,7,4.4C6.7,4.2,6.5,3.9,6.5,3.6
		c0-0.2,0.1-0.4,0.2-0.6s0.4-0.3,0.6-0.3V2.2h0.4v0.5c0.3,0,0.5,0.1,0.6,0.3c0.1,0.2,0.2,0.4,0.2,0.7H8c0-0.2,0-0.3-0.1-0.4
		C7.8,3.2,7.6,3.1,7.5,3.1c-0.1,0-0.3,0-0.3,0.1C7.1,3.3,7,3.4,7,3.6c0,0.1,0,0.2,0.1,0.3C7.2,4,7.4,4,7.6,4.1
		C7.8,4.2,7.9,4.2,8,4.3c0.1,0.1,0.2,0.1,0.3,0.2c0.1,0.1,0.1,0.2,0.2,0.3S8.5,5,8.5,5.1c0,0.2-0.1,0.5-0.2,0.6C8.1,5.9,7.9,6,7.6,6
		v0.4H7.3V6C7,6,6.8,5.9,6.6,5.7C6.5,5.5,6.4,5.3,6.4,5h0.5c0,0.2,0,0.3,0.1,0.4c0.1,0.1,0.2,0.2,0.4,0.2c0.2,0,0.3,0,0.4-0.1
		S8,5.3,8,5.1z"/>
</g>
</svg>
