<?xml version="1.0" encoding="utf-8"?>
<!-- Generator: Adobe Illustrator 21.1.0, SVG Export Plug-In . SVG Version: 6.00 Build 0)  -->
<svg version="1.1" id="Capa_1" xmlns="http://www.w3.org/2000/svg" xmlns:xlink="http://www.w3.org/1999/xlink" x="0px" y="0px"
	 viewBox="0 0 18.6 20" style="enable-background:new 0 0 18.6 20;" xml:space="preserve">
<path d="M11.2,2.6L10.4,4L15,4l-2.5-3.9l-0.7,1.5c0,0-0.4-0.1-1.4-0.2C6.8,0.9,1,3,0.2,9.3c-0.6,4.6,2.5,9.4,8.1,10.1l0.1-1.1
	c-5-0.6-7.7-5-7.2-8.9s4.2-7.6,9-7C10.2,2.4,10.6,2.4,11.2,2.6z"/>
<path d="M7.9,8.5c1.2,0,2.2-1,2.2-2.2s-1-2.2-2.2-2.2s-2.2,1-2.2,2.2S6.7,8.5,7.9,8.5z M8.8,13.8c0-1.9,2.8-2.8,2.8-2.8
	c-0.5-1.3-2.5-2-3.5-2c-1.2,0-3.6,0.9-3.6,2.6V16h4.3C8.8,16,8.8,15.7,8.8,13.8z"/>
<path d="M13.8,10.4c1.5,0,2.8-1.2,2.8-2.8s-1.2-2.8-2.8-2.8S11,6.1,11,7.6S12.2,10.4,13.8,10.4z M13.9,11.1c-1.5,0-4.6,1.1-4.6,3.3
	v5.5h9.2v-5.5C18.5,12.2,15.5,11.1,13.9,11.1z"/>
</svg>
