<?xml version="1.0" encoding="utf-8"?>
<!-- Generator: Adobe Illustrator 21.1.0, SVG Export Plug-In . SVG Version: 6.00 Build 0)  -->
<svg version="1.1" id="Capa_1" xmlns="http://www.w3.org/2000/svg" xmlns:xlink="http://www.w3.org/1999/xlink" x="0px" y="0px"
	 viewBox="0 0 20 20" style="enable-background:new 0 0 20 20;" xml:space="preserve">
<style type="text/css">
	.st0{fill:#FFFFFF;}
</style>
<path class="st0" d="M12.7,2.7L12,4.1l4.7,0l-2.6-4l-0.8,1.5c0,0-0.4-0.1-1.4-0.2C8.2,0.9,2.3,3.1,1.5,9.5
	c-0.6,4.7,2.6,9.7,8.4,10.4l0.1-1.1c-5.2-0.7-8-5.1-7.4-9.1s4.3-7.9,9.3-7.2C11.8,2.4,12.2,2.5,12.7,2.7z"/>
<g>
	<path class="st0" d="M8.5,11.5c-0.5,0.5-1,0.7-1.6,0.7c-0.7,0-1.3-0.3-1.7-0.8c-0.4-0.5-0.6-1.2-0.6-2c0-0.5,0.1-1,0.3-1.5
		c0.2-0.4,0.5-0.8,0.9-1c0.4-0.2,0.9-0.4,1.4-0.4c0.8,0,1.5,0.3,2,0.9C9.6,8.1,9.9,8.9,9.9,10v0.4c0,1.5-0.3,2.6-1,3.4
		c-0.7,0.8-1.7,1.2-3,1.2H5.7v-1.1h0.2c0.8,0,1.4-0.2,1.9-0.6C8.2,12.8,8.5,12.2,8.5,11.5z M7.2,11.1c0.3,0,0.5-0.1,0.8-0.2
		c0.2-0.2,0.4-0.4,0.6-0.7V9.7c0-0.6-0.1-1.1-0.4-1.5c-0.2-0.4-0.6-0.6-1-0.6c-0.4,0-0.7,0.2-0.9,0.5C6,8.5,5.9,8.9,5.9,9.4
		c0,0.5,0.1,0.9,0.4,1.2C6.5,11,6.8,11.1,7.2,11.1z"/>
	<path class="st0" d="M16.5,11.4c0,1.2-0.2,2.1-0.7,2.7c-0.4,0.6-1.1,0.9-2,0.9c-0.9,0-1.5-0.3-2-0.9c-0.4-0.6-0.7-1.4-0.7-2.6v-1.4
		c0-1.2,0.2-2.1,0.7-2.6c0.4-0.6,1.1-0.9,2-0.9c0.9,0,1.6,0.3,2,0.9c0.4,0.6,0.7,1.4,0.7,2.6V11.4z M15.1,9.9c0-0.8-0.1-1.3-0.3-1.7
		c-0.2-0.4-0.5-0.5-1-0.5c-0.4,0-0.8,0.2-1,0.5c-0.2,0.3-0.3,0.9-0.3,1.6v1.9c0,0.8,0.1,1.3,0.3,1.7c0.2,0.4,0.5,0.6,1,0.6
		c0.4,0,0.8-0.2,1-0.5c0.2-0.3,0.3-0.9,0.3-1.6V9.9z"/>
</g>
<g>
	<path class="st0" d="M16.4,6.9c0-0.3,0.1-0.5,0.2-0.8c0.1-0.2,0.3-0.4,0.5-0.5c0.2-0.1,0.4-0.2,0.7-0.2c0.4,0,0.7,0.1,0.9,0.4
		c0.2,0.2,0.4,0.6,0.4,1l0,0.2c0,0.3-0.1,0.5-0.2,0.8s-0.3,0.4-0.5,0.5S18,8.4,17.8,8.4c-0.4,0-0.7-0.1-1-0.4
		C16.5,7.7,16.4,7.4,16.4,6.9L16.4,6.9z M17.1,7c0,0.3,0.1,0.5,0.2,0.7c0.1,0.2,0.3,0.3,0.5,0.3s0.4-0.1,0.5-0.3
		c0.1-0.2,0.2-0.4,0.2-0.7c0-0.3-0.1-0.5-0.2-0.7C18.1,6,18,6,17.8,6c-0.2,0-0.4,0.1-0.5,0.3C17.1,6.4,17.1,6.6,17.1,7z"/>
</g>
<style type="text/css">
	svg:hover .st0{fill:#00FFFF;}
 </style>
</svg>
