<?xml version="1.0" encoding="utf-8"?>
<!-- Generator: Adobe Illustrator 21.1.0, SVG Export Plug-In . SVG Version: 6.00 Build 0)  -->
<svg version="1.1" id="Layer_1" xmlns="http://www.w3.org/2000/svg" xmlns:xlink="http://www.w3.org/1999/xlink" x="0px" y="0px"
	 viewBox="0 0 30 20" style="enable-background:new 0 0 30 20;" xml:space="preserve">
<path id="mail" d="M25.8,0.7H4.1c-2,0-3.6,1.6-3.6,3.6V16c0,2,1.6,3.6,3.6,3.6h21.6c2,0,3.6-1.6,3.6-3.6V4.3
	C29.4,2.3,27.8,0.7,25.8,0.7z M2.3,5.4l6.3,4.7l-6.3,4.7V5.4z M27.6,16c0,1-0.8,1.8-1.8,1.8H4.1c-1,0-1.8-0.8-1.8-1.8l7.1-5.3l3.9,3
	c0.5,0.4,1.1,0.5,1.6,0.5c0.6,0,1.1-0.2,1.6-0.5l3.9-3L27.6,16L27.6,16z M27.6,14.9l-6.3-4.7l6.3-4.7V14.9z M16,13
	c-0.3,0.2-0.7,0.4-1.1,0.4s-0.8-0.1-1.1-0.4l-3.7-2.8L9.4,9.6L2.3,4.3v0c0-1,0.8-1.8,1.8-1.8h21.6c1,0,1.8,0.8,1.8,1.8L16,13z"/>
</svg>
