<?xml version="1.0" encoding="utf-8"?>
<!-- Generator: Adobe Illustrator 21.1.0, SVG Export Plug-In . SVG Version: 6.00 Build 0)  -->
<svg version="1.1" id="Capa_1" xmlns="http://www.w3.org/2000/svg" xmlns:xlink="http://www.w3.org/1999/xlink" x="0px" y="0px"
	 viewBox="0 0 20 20" style="enable-background:new 0 0 20 20;" xml:space="preserve">
<style type="text/css">
	.st0{fill:#038747;stroke:#FFFFFF;stroke-width:0.8887;stroke-miterlimit:10;}
	.st1{fill:#FFFFFF;}
</style>
<circle class="st0" cx="10" cy="10" r="8.8"/>
<path class="st1" d="M9.5,10.9l-0.8,0.8l-0.9-0.8l-0.9,0.8L6,10.9l-0.8,0.8L3.6,10l0.9-1.2l6.4,0c0.5-1,1.4-1.6,2.6-1.6
	c1.6,0,2.8,1.3,2.8,2.8s-1.3,2.8-2.8,2.8c-1.2,0-2.3-0.8-2.7-1.9L9.5,10.9z M14.7,9.1c-0.5,0-1,0.4-1,1c0,0.5,0.4,1,1,1
	c0.5,0,1-0.4,1-1C15.7,9.6,15.2,9.1,14.7,9.1z"/>
</svg>
