<?xml version="1.0" encoding="utf-8"?>
<!-- Generator: Adobe Illustrator 21.1.0, SVG Export Plug-In . SVG Version: 6.00 Build 0)  -->
<svg version="1.1" id="Capa_1" xmlns="http://www.w3.org/2000/svg" xmlns:xlink="http://www.w3.org/1999/xlink" x="0px" y="0px"
	 viewBox="0 0 20 20" style="enable-background:new 0 0 20 20;" xml:space="preserve">
<style type="text/css">
	<!-- .st0{fill:#00FFFF !important;}
	.st1{fill:#FFFFFF;} -->
	
    #sendChat {
        fill: #00FFFF !important;
    }
</style>
<circle id="sendChat" class="st0" cx="10" cy="10" r="9.9"/>
<polygon class="st1" points="3.5,3.5 18.5,10.5 3.5,16.5 11.5,10.5 "/>
</svg>
