<?xml version="1.0" encoding="utf-8"?>
<!-- Generator: Adobe Illustrator 19.0.0, SVG Export Plug-In . SVG Version: 6.00 Build 0)  -->
<svg version="1.1" id="Capa_1" xmlns="http://www.w3.org/2000/svg" xmlns:xlink="http://www.w3.org/1999/xlink" x="0px" y="0px"
	 width="163.3px" height="163.3px" viewBox="-117 119.7 163.3 163.3" style="enable-background:new -117 119.7 163.3 163.3;"
	 xml:space="preserve">
<path d="M-11,220.6c0,10.4-2.5,16.3-7.4,16.3c-4.5,0-7.5-5.5-7.4-16c-0.1-10.9,3-16.3,7.4-16.3C-13.4,204.6-11,210.5-11,220.6z"/>
<path d="M-74.6,190v53.8c0,2.8,2.8,5.1,6.2,5.1h66c3.4,0,6.2-2.3,6.2-5.1V190H-74.6z M-42.1,238.9c-2.8,2.6-6.4,4-10.7,4
	c-4.1,0-7.5-1.2-10-3.7c-2.6-2.5-4-5.9-4.3-10.1h8c0.3,2.2,1.1,3.8,2.3,4.9s2.7,1.6,4.5,1.6c1.9,0,3.4-0.6,4.7-1.8
	c1.2-1.2,1.9-2.7,1.9-4.4c0-1.9-0.8-3.5-2.5-4.9c-1.7-1.3-4.1-2-7.2-2v-7.2c1.9-0.2,3.4-0.5,4.3-0.9s1.7-1.1,2.2-1.9
	s0.8-1.6,0.8-2.5c0-1.2-0.4-2.1-1.2-2.9s-1.9-1.1-3.2-1.1c-1.1,0-2.2,0.3-3.1,1c-0.9,0.7-1.6,1.6-1.9,2.7h-7.7
	c0.4-3.1,1.5-5.6,3.4-7.5c2.6-2.7,5.8-4,9.7-4c3.5,0,6.4,1.1,8.7,3.3c2.4,2.2,3.5,4.8,3.5,7.9c0,1.9-0.5,3.6-1.5,5.1
	c-1,1.6-2.5,2.8-4.5,3.8c2.6,0.8,4.6,2.1,6,4s2.2,4.2,2.2,6.8C-37.9,233-39.3,236.2-42.1,238.9z M-18.6,243.2
	c-10,0-15.4-9.1-15.4-22.3c0-13.5,5.7-22.6,15.9-22.6c10.5,0,15.4,9.4,15.4,22.2C-2.8,234.4-8.2,243.2-18.6,243.2z"/>
<path d="M-35.4,119.7c-45.1,0-81.6,36.6-81.6,81.6c0,45.1,36.6,81.7,81.6,81.7c45.1,0,81.7-36.6,81.7-81.7
	C46.3,156.3,9.7,119.7-35.4,119.7z M-18.8,151.2c0-2.8,2.8-5,6.3-5s6.3,2.3,6.3,5V173c0,2.8-2.8,5.1-6.3,5.1s-6.3-2.3-6.3-5.1
	C-18.8,173-18.8,151.2-18.8,151.2z M-64.5,151.2c0-2.8,2.8-5,6.3-5s6.3,2.3,6.3,5V173c0,2.8-2.8,5.1-6.3,5.1s-6.3-2.3-6.3-5.1V151.2
	z M12.1,249.1c0,4.1-3.3,7.5-7.5,7.5h-80.1c-4.1,0-7.5-3.3-7.5-7.5V169c0-4.1,3.3-7.5,7.5-7.5h9v14c0,3.8,3.6,6.9,8.1,6.9
	s8.1-3.1,8.1-6.9v-14h29.5v14c0,3.8,3.6,6.9,8.1,6.9s8.1-3.1,8.1-6.9v-14h9c4.1,0,7.5,3.3,7.5,7.5v80.1H12.1z"/>
</svg>
