{
  "prepare_queue": {
    "installed": [],
    "uninstalled": []
  },
  "config_munge": {
    "files": {}
  },
  "installed_plugins": {
    "cordova-plugin-camera": {
      "PACKAGE_NAME": "$(PRODUCT_BUNDLE_IDENTIFIER)"
    },
    "cordova-plugin-ios-camera-permissions": {
      "CAMERA_USAGE_DESCRIPTION": "This app needs camera access",
      "MICROPHONE_USAGE_DESCRIPTION": "This app needs microphone access",
      "PHOTOLIBRARY_ADD_USAGE_DESCRIPTION": "This app needs write-access to photo library",
      "PHOTOLIBRARY_USAGE_DESCRIPTION": "This app needs read/write-access photo library access",
      "PACKAGE_NAME": "$(PRODUCT_BUNDLE_IDENTIFIER)"
    },
    "cordova-plugin-statusbar": {
      "PACKAGE_NAME": "$(PRODUCT_BUNDLE_IDENTIFIER)"
    },
    "cordova-plugin-whitelist": {
      "PACKAGE_NAME": "$(PRODUCT_BUNDLE_IDENTIFIER)"
    }
  },
  "dependent_plugins": {}
}
