<?xml version="1.0" encoding="utf-8"?>
<!-- Generator: Adobe Illustrator 21.1.0, SVG Export Plug-In . SVG Version: 6.00 Build 0)  -->
<svg version="1.1" id="Capa_1" xmlns="http://www.w3.org/2000/svg" xmlns:xlink="http://www.w3.org/1999/xlink" x="0px" y="0px"
	 viewBox="0 0 20 20" style="enable-background:new 0 0 20 20;" xml:space="preserve">
<style type="text/css">
	.st0{fill:#1D1D1B;}
	.st1{fill:#038747;}
</style>
<path class="st0" d="M19.9,10c0,5.4-4.4,9.9-9.9,9.9S0.1,15.4,0.1,10S4.6,0.1,10,0.1S19.9,4.6,19.9,10z M10,1.3
	c-4.8,0-8.7,3.9-8.7,8.7s3.9,8.7,8.7,8.7s8.7-3.9,8.7-8.7S14.8,1.3,10,1.3z"/>
<polygon class="st1" points="4.8,10.8 5.2,10.2 8.7,12.4 14.9,5.1 15.2,5.5 8.9,14.9 "/>
</svg>
