<?xml version="1.0" encoding="utf-8"?>
<!-- Generator: Adobe Illustrator 21.1.0, SVG Export Plug-In . SVG Version: 6.00 Build 0)  -->
<svg version="1.1" id="Capa_1" xmlns="http://www.w3.org/2000/svg" xmlns:xlink="http://www.w3.org/1999/xlink" x="0px" y="0px"
	 viewBox="0 0 15.6 20" style="enable-background:new 0 0 15.6 20;" xml:space="preserve">
<path d="M11.2,13.4c-0.1-0.3-0.4-0.5-0.7-0.5H5.4c-0.3,0-0.6,0.2-0.7,0.5c0,0-0.8,1.8-1,2.2c-0.2,0.5,0,3.8,0,3.8
	c0,0.3,0.2,0.5,0.5,0.5h0.5c0.3,0,0.5-0.2,0.5-0.5V19h5.7v0.5c0,0.3,0.2,0.5,0.5,0.5h0.5c0.3,0,0.5-0.2,0.5-0.5c0,0,0.2-3.3,0-3.8
	C12.1,15.2,11.2,13.4,11.2,13.4z M5.4,17.3c-0.4,0-0.7-0.1-0.7-0.5s0-0.7,0.4-0.7s1,0.3,1,0.7S5.8,17.3,5.4,17.3z M10.6,17.3
	c-0.4,0-0.7-0.1-0.7-0.5s0.7-0.7,1.1-0.7s0.4,0.3,0.4,0.7S11,17.3,10.6,17.3z M4.7,15.2c0,0,0.5-1.3,0.7-1.5c0.2-0.2,5-0.1,5.2,0
	c0.2,0.1,0.7,1.5,0.7,1.5H4.7z"/>
<path d="M15.4,19.8H0.1V0.2h15.3V19.8z M13.9,1.6H1.7v18.2h12.2V1.6z"/>
<rect x="3.2" y="2.5" width="1.8" height="2.3"/>
<rect x="5.8" y="2.5" width="1.8" height="2.3"/>
<rect x="8.4" y="2.5" width="1.8" height="2.3"/>
<rect x="11" y="2.5" width="1.8" height="2.3"/>
<rect x="3.2" y="6.1" width="1.8" height="2.3"/>
<rect x="5.8" y="6.1" width="1.8" height="2.3"/>
<rect x="8.4" y="6.1" width="1.8" height="2.3"/>
<rect x="11" y="6.1" width="1.8" height="2.3"/>
<rect x="3.2" y="9.9" width="1.8" height="2.3"/>
<rect x="5.8" y="9.9" width="1.8" height="2.3"/>
<rect x="8.4" y="9.9" width="1.8" height="2.3"/>
<rect x="11" y="9.9" width="1.8" height="2.3"/>
</svg>
