<?xml version="1.0" encoding="utf-8"?>
<!-- Generator: Adobe Illustrator 21.1.0, SVG Export Plug-In . SVG Version: 6.00 Build 0)  -->
<svg version="1.1" id="Capa_1" xmlns="http://www.w3.org/2000/svg" xmlns:xlink="http://www.w3.org/1999/xlink" x="0px" y="0px"
	 viewBox="0 0 20 20" style="enable-background:new 0 0 20 20;" xml:space="preserve">
<path d="M17.2,5.6c-0.2-0.6-0.8-1-1.5-1H4.4C3.8,4.5,3.2,5,3,5.6c0,0-1.7,3.8-2.1,4.9s0,8.2,0,8.2c0,0.6,0.5,1,1,1h1
	c0.6,0,1-0.5,1-1v-1h12.3v1c0,0.6,0.5,1,1,1h1c0.6,0,1-0.5,1-1c0,0,0.3-7.2,0-8.2S17.2,5.6,17.2,5.6z M4.4,14
	c-0.9,0-1.5-0.2-1.5-1.1c0-0.9-0.1-1.5,0.8-1.5S6,12.1,6,13C6,13.8,5.3,14,4.4,14z M15.7,14.1c-0.9,0-1.5-0.3-1.5-1.1
	c0-0.9,1.5-1.5,2.3-1.5s0.8,0.7,0.8,1.5C17.3,13.8,16.6,14.1,15.7,14.1z M2.9,9.4c0,0,1-2.8,1.5-3.3s10.8-0.3,11.3,0
	s1.5,3.3,1.5,3.3H2.9z"/>
</svg>
