<?xml version="1.0" standalone="no"?>
<!DOCTYPE svg PUBLIC "-//W3C//DTD SVG 20010904//EN"
 "http://www.w3.org/TR/2001/REC-SVG-20010904/DTD/svg10.dtd">
<svg version="1.0" xmlns="http://www.w3.org/2000/svg"
 width="512.000000pt" height="512.000000pt" viewBox="0 0 512.000000 512.000000"
 preserveAspectRatio="xMidYMid meet">
<metadata>
Created by potrace 1.13, written by Peter Selinger 2001-2015
</metadata>
<g transform="translate(0.000000,512.000000) scale(0.100000,-0.100000)"
fill="" stroke="none">
<path d="M2190 4604 c-864 -79 -1541 -617 -1666 -1324 -22 -125 -22 -335 0
-460 35 -196 137 -438 246 -580 57 -75 60 -95 35 -246 -29 -183 -118 -444
-236 -693 -27 -57 -49 -107 -49 -111 0 -10 233 39 425 90 290 76 566 173 719
253 l82 42 79 -17 c207 -44 295 -53 545 -52 261 0 342 9 542 60 592 150 1060
558 1228 1074 47 144 63 249 64 410 0 218 -46 414 -141 605 -243 485 -760 831
-1389 930 -97 15 -396 27 -484 19z"/>
<path d="M4361 2274 c-217 -426 -608 -768 -1095 -959 -224 -87 -508 -145 -789
-161 l-129 -7 54 -54 c167 -171 397 -291 669 -350 126 -27 475 -25 613 4 l100
20 76 -38 c128 -63 406 -153 620 -199 52 -11 105 -22 117 -25 22 -5 21 -3 -13
72 -98 213 -155 390 -169 525 l-7 66 45 64 c186 262 223 602 97 900 -28 68
-126 228 -139 228 -3 0 -26 -39 -50 -86z"/>
</g>
</svg>
