<?xml version="1.0" encoding="utf-8"?>
<!-- Generator: Adobe Illustrator 21.1.0, SVG Export Plug-In . SVG Version: 6.00 Build 0)  -->
<svg version="1.1" id="Capa_1" xmlns="http://www.w3.org/2000/svg" xmlns:xlink="http://www.w3.org/1999/xlink" x="0px" y="0px"
	 viewBox="0 0 20 15.9" style="enable-background:new 0 0 20 15.9;" xml:space="preserve">
<g>
	<g>
		<path d="M7.7,3.5L3.5,2.6C3.3,2.6,3.1,2.3,3.2,2.1l0.3-1.2C3.5,0.6,3.7,0.5,4,0.5l4.1,0.9c0.3,0.1,0.4,0.3,0.4,0.6L8.2,3.2
			C8.2,3.4,7.9,3.6,7.7,3.5z"/>
		<path d="M16.2,5.3l-4.1-0.9c-0.3-0.1-0.4-0.3-0.4-0.6L12,2.7c0.1-0.3,0.3-0.4,0.6-0.4l4.1,0.9C16.9,3.2,17,3.5,17,3.7L16.7,5
			C16.7,5.2,16.4,5.4,16.2,5.3z"/>
		<ellipse transform="matrix(0.2067 -0.9784 0.9784 0.2067 5.1219 12.1618)" cx="10.1" cy="2.9" rx="2.6" ry="2.6"/>
	</g>
	<path d="M4.5,3.5l3.4,5.8c0,0,0,4.1-4.1,4.1S0.1,9.3,0.1,9.3l3.3-5.7L4.5,3.5z M4,4.3l-3,5h6L4,4.3z"/>
	<path d="M16.5,5.8l3.4,5.8c0,0,0,4.1-4.1,4.1s-3.7-4.2-3.7-4.2l3.3-5.7L16.5,5.8z M16.1,6.6l-3,5h6L16.1,6.6z"/>
</g>
</svg>
