<?xml version="1.0" encoding="utf-8"?>
<!-- Generator: Adobe Illustrator 21.1.0, SVG Export Plug-In . SVG Version: 6.00 Build 0)  -->
<svg version="1.1" id="Capa_1" xmlns="http://www.w3.org/2000/svg" xmlns:xlink="http://www.w3.org/1999/xlink" x="0px" y="0px"
	 viewBox="0 0 20 20" style="enable-background:new 0 0 20 20;" xml:space="preserve">
<g>
	<rect x="-2.7" y="8.8" transform="matrix(0.7071 0.7071 -0.7071 0.7071 10.0128 -4.1002)" width="25.3" height="2.6"/>
	<rect x="-2.7" y="8.8" transform="matrix(0.7071 -0.7071 0.7071 0.7071 -4.1809 9.9794)" width="25.3" height="2.6"/>
</g>
</svg>
