<?xml version="1.0" encoding="utf-8"?>
<!-- Generator: Adobe Illustrator 21.1.0, SVG Export Plug-In . SVG Version: 6.00 Build 0)  -->
<svg version="1.1" id="Capa_1" xmlns="http://www.w3.org/2000/svg" xmlns:xlink="http://www.w3.org/1999/xlink" x="0px" y="0px"
	 viewBox="0 0 20 16.5" style="enable-background:new 0 0 20 16.5;" xml:space="preserve">
<path d="M18.4,9.9c-0.1-0.3-0.3-0.4-0.6-0.4h-4.8c-0.3,0-0.5,0.2-0.6,0.4c0,0-0.7,1.6-0.9,2.1c-0.2,0.4,0,3.5,0,3.5
	c0,0.2,0.2,0.4,0.4,0.4h0.4c0.2,0,0.4-0.2,0.4-0.4V15H18v0.4c0,0.2,0.2,0.4,0.4,0.4h0.4c0.2,0,0.4-0.2,0.4-0.4c0,0,0.1-3.1,0-3.5
	C19.2,11.5,18.4,9.9,18.4,9.9z M12.9,13.5c-0.4,0-0.7-0.1-0.7-0.5s0-0.7,0.3-0.7s1,0.3,1,0.7S13.3,13.5,12.9,13.5z M17.8,13.5
	c-0.4,0-0.7-0.1-0.7-0.5s0.6-0.7,1-0.7s0.3,0.3,0.3,0.7S18.1,13.5,17.8,13.5z M12.3,11.5c0,0,0.4-1.2,0.7-1.4c0.2-0.2,4.6-0.1,4.8,0
	c0.2,0.1,0.7,1.4,0.7,1.4H12.3z"/>
<path d="M13.5,9.5V7.5c0,0,0-0.5,0.5-0.1s0.6,0.5,0.6,0.5l0.2-0.2l-7-6.1H7.8L0.9,7.6l0.2,0.2c0,0,0.4-0.3,0.7-0.6
	C2,7.1,2.2,7.2,2.2,7.5s0,8,0,8h3.5c0,0,0-3.6,0-3.7s0.1-0.2,0.3-0.2s3.4,0,3.6,0s0.2,0.1,0.2,0.3s0,3.7,0,3.7h3.6v-0.6H14
	c0,0,0,0.6,0,0.8c0,0.2-0.1,0.3-0.3,0.3s-3.8,0-4,0s-0.3-0.1-0.3-0.3c0-0.1,0-3.7,0-3.7H6.3c0,0,0,3.5,0,3.7C6.3,15.8,6.3,16,6,16
	c-0.2,0-3.9,0-4,0s-0.3-0.1-0.3-0.4c0-0.3,0-7.6,0-7.6L1.3,8.3c0,0-0.2,0.3-0.5,0S0.3,8,0.3,7.9S0.1,7.6,0.3,7.4s7.1-6.3,7.1-6.3
	S7.6,1,7.7,1C7.9,1,7.8,1,8,1s0.3,0.2,0.3,0.2s6.8,6.1,7,6.2c0.2,0.2,0.3,0.3,0.1,0.5c-0.2,0.2-0.5,0.4-0.6,0.5
	c-0.1,0.1-0.3,0.1-0.4,0S14,8,14,8v1.5L13.5,9.5z"/>
</svg>
