<?xml version="1.0" encoding="utf-8"?>
<!-- Generator: Adobe Illustrator 19.0.0, SVG Export Plug-In . SVG Version: 6.00 Build 0)  -->
<svg version="1.1" id="Capa_1" xmlns="http://www.w3.org/2000/svg" xmlns:xlink="http://www.w3.org/1999/xlink" x="0px" y="0px"
	 width="146.4px" height="263.5px" viewBox="0 0 146.4 263.5" style="enable-background:new 0 0 146.4 263.5;" xml:space="preserve"
	>
<style type="text/css">
	.st0{fill:#231F20;}
</style>
<polygon id="XMLID_10_" class="st0" points="146.4,131.8 14.6,263.5 0,263.5 131.8,131.8 0,0 14.6,0 "/>
</svg>
