<?xml version="1.0" encoding="utf-8"?>
<!-- Generator: Adobe Illustrator 21.1.0, SVG Export Plug-In . SVG Version: 6.00 Build 0)  -->
<svg version="1.1" id="Capa_1" xmlns="http://www.w3.org/2000/svg" xmlns:xlink="http://www.w3.org/1999/xlink" x="0px" y="0px"
	 viewBox="0 0 20 20" style="enable-background:new 0 0 20 20;" xml:space="preserve">
<g>
	<path d="M20,10c0,5.5-4.4,9.9-9.9,9.9S0.2,15.5,0.2,10s4.4-9.9,9.9-9.9S20,4.5,20,10z M10,1.3c-4.8,0-8.8,3.9-8.8,8.8
		s3.9,8.8,8.8,8.8s8.8-3.9,8.8-8.8S14.9,1.3,10,1.3z"/>
	<path id="mail_2_" d="M14.8,5.9H5.3c-0.9,0-1.6,0.7-1.6,1.6v5.1c0,0.9,0.7,1.6,1.6,1.6h9.5c0.9,0,1.6-0.7,1.6-1.6V7.4
		C16.4,6.6,15.7,5.9,14.8,5.9z M4.5,7.9L7.3,10L4.5,12V7.9z M15.6,12.6c0,0.4-0.4,0.8-0.8,0.8H5.3c-0.4,0-0.8-0.4-0.8-0.8l3.1-2.3
		l1.7,1.3c0.2,0.2,0.5,0.2,0.7,0.2c0.3,0,0.5-0.1,0.7-0.2l1.7-1.3L15.6,12.6L15.6,12.6z M15.6,12.1L12.9,10L15.6,8L15.6,12.1z
		 M10.5,11.2c-0.1,0.1-0.3,0.2-0.5,0.2s-0.4,0-0.5-0.2L8,10L7.6,9.8L4.5,7.4l0,0c0-0.4,0.4-0.8,0.8-0.8h9.5c0.4,0,0.8,0.4,0.8,0.8
		L10.5,11.2z"/>
</g>
</svg>
