<?xml version="1.0" encoding="utf-8"?>
<!-- Generator: Adobe Illustrator 21.1.0, SVG Export Plug-In . SVG Version: 6.00 Build 0)  -->
<svg version="1.1" id="Capa_1" xmlns="http://www.w3.org/2000/svg" xmlns:xlink="http://www.w3.org/1999/xlink" x="0px" y="0px"
	 viewBox="0 0 18.3 20" style="enable-background:new 0 0 18.3 20;" xml:space="preserve">
<path d="M4.2,11.1c1.4,0,2.6-1.2,2.6-2.6S5.7,5.9,4.2,5.9S1.6,7,1.6,8.5S2.8,11.1,4.2,11.1z M4.4,11.7c-1.4,0-4.3,1-4.3,3v5.2h8.6
	v-5.2C8.7,12.7,5.8,11.7,4.4,11.7z"/>
<path d="M9.2,9.7c0,0,0.4,1.6-0.3,2.6c0,0,2.2-0.5,2.3-2.1L9.2,9.7z"/>
<path d="M15.5,10.3h-5C9.1,10.3,8,9.2,8,7.7v-5c0-1.4,1.2-2.6,2.6-2.6h5c1.4,0,2.6,1.2,2.6,2.6v5C18.2,9.2,17,10.3,15.5,10.3z
	 M12.5,7.5c-0.1,0.1-0.2,0.3-0.2,0.5c0,0.2,0.1,0.4,0.2,0.5c0.1,0.1,0.3,0.2,0.6,0.2c0.2,0,0.4-0.1,0.6-0.2c0.1-0.1,0.2-0.3,0.2-0.5
	c0-0.2-0.1-0.4-0.2-0.5c-0.1-0.1-0.3-0.2-0.6-0.2C12.8,7.3,12.6,7.3,12.5,7.5z M13.8,1.6h-1.5l0.2,4.9h1.2L13.8,1.6z"/>
</svg>
