<?xml version="1.0" encoding="utf-8"?>
<!-- Generator: Adobe Illustrator 19.0.0, SVG Export Plug-In . SVG Version: 6.00 Build 0)  -->
<svg version="1.1" id="Capa_1" xmlns="http://www.w3.org/2000/svg" xmlns:xlink="http://www.w3.org/1999/xlink" x="0px" y="0px"
	 width="163.3px" height="163.3px" viewBox="-117 119.7 163.3 163.3" style="enable-background:new -117 119.7 163.3 163.3;"
	 xml:space="preserve">
<path d="M-35.4,119.7c-45.1,0-81.7,36.5-81.7,81.7c0,45.1,36.6,81.6,81.7,81.6s81.7-36.6,81.7-81.6C46.2,156.2,9.7,119.7-35.4,119.7
	z M5.6,181c2-0.8,4.4,0.2,5.2,2.2c0.4,0.9,0.7,1.9,1,2.8c0.7,2.1-0.4,4.4-2.5,5.1c-1.2,0.4-2.6,0.2-3.6-0.5c-0.7-0.5-1.2-1.2-1.5-2
	c-0.3-0.8-0.6-1.6-0.9-2.4C2.5,184.2,3.5,181.8,5.6,181z M-39.6,247.5c-0.4,2.2-2.5,3.6-4.7,3.2c-7.2-1.3-13.9-4.1-19.9-8.3
	c-2.3-1.6-4.4-3.4-6.4-5.3l-0.1-0.1c-7.3-7.2-12.1-16.5-13.9-26.8c-0.2-1-0.3-2-0.4-3c0-0.1,0-0.1,0-0.2c-0.1-1-0.2-2-0.2-3v-0.1
	c-0.5-10.3,2.2-20.4,7.9-29.1c0-0.1,0.1-0.1,0.1-0.2c0.3-0.5,0.7-1,1.1-1.6c0.2-0.3,0.4-0.6,0.7-0.9c0.1-0.1,0.1-0.1,0.2-0.2
	c6.8-9.1,16.4-15.5,27.4-18.4c0.1,0,0.1,0,0.2,0l0,0c1.2-0.3,2.5-0.6,3.8-0.8c12.7-2.2,25.5,0.5,36.2,7.7l3.1-4.5
	c0.9-1.3,1.9-1.1,2.3,0.4l3.6,13.2c0.4,1.5-0.5,2.8-2,2.9l-13.6,1.2c-1.5,0.1-2.1-0.8-1.2-2l3.1-4.5c-14.6-9.7-33.2-9.1-46.9,0.4
	c-0.1,0-0.1,0.1-0.2,0.1c-3.9,2.7-7.4,6.1-10.3,10.2c-13.3,18.8-8.7,45,10.1,58.2c1.3,0.9,2.6,1.7,4,2.5l0,0
	c0.8,0.4,1.5,0.8,2.3,1.1c0,0,0.1,0,0.1,0.1c3.3,1.5,6.7,2.6,10.3,3.3C-40.7,243.2-39.2,245.3-39.6,247.5z M-41.1,204.9v-32.3
	c0-1.8,1.5-3.2,3.2-3.2c1.7,0,3.2,1.4,3.2,3.2v28.3l26,13.4c1.6,0.8,2.2,2.8,1.4,4.4c-0.6,1.1-1.7,1.8-2.9,1.8c-0.5,0-1-0.1-1.5-0.4
	L-41.1,204.9z M-23.4,250c-1,0.2-2,0.5-3,0.6c-1.1,0.2-2.2-0.1-3-0.7c-0.8-0.6-1.4-1.5-1.6-2.5c-0.4-2.2,1-4.3,3.2-4.7
	c0.8-0.1,1.7-0.3,2.5-0.5c2.1-0.5,4.3,0.8,4.8,2.9C-20,247.3-21.3,249.5-23.4,250z M-8,243.2c-0.8,0.6-1.7,1.1-2.6,1.6
	c-1.4,0.8-3.1,0.7-4.3-0.2c-0.5-0.3-0.9-0.8-1.2-1.3c-1.1-1.9-0.5-4.4,1.5-5.5c0.7-0.4,1.5-0.9,2.2-1.3c1.8-1.2,4.3-0.7,5.5,1.1
	C-5.6,239.5-6.1,242-8,243.2z M4.4,231.6c-0.6,0.8-1.2,1.6-1.9,2.4c-1.4,1.6-3.7,1.9-5.3,0.7c-0.1-0.1-0.2-0.1-0.3-0.2
	c-1.7-1.4-1.9-4-0.4-5.7c0.5-0.6,1.1-1.3,1.6-2c1.3-1.8,3.8-2.1,5.6-0.8C5.4,227.4,5.7,229.9,4.4,231.6z M12.1,216.6
	c-0.3,1-0.6,1.9-1,2.9c-0.8,2.1-3.1,3.1-5.2,2.3c-0.3-0.1-0.6-0.3-0.9-0.5c-1.5-1-2.1-3-1.4-4.7c0.3-0.8,0.6-1.6,0.8-2.4
	c0.7-2.1,2.9-3.3,5-2.6C11.6,212.2,12.8,214.4,12.1,216.6z M10.3,206.7c-0.8,0-1.6-0.3-2.2-0.7c-1-0.8-1.7-2-1.7-3.4
	c0-0.8,0-1.7,0-2.5c-0.1-2.2,1.6-4.1,3.8-4.2s4.1,1.6,4.2,3.8c0,1,0,2,0,3C14.3,205,12.5,206.8,10.3,206.7z"/>
</svg>
