<?xml version="1.0" encoding="utf-8"?>
<!-- Generator: Adobe Illustrator 21.1.0, SVG Export Plug-In . SVG Version: 6.00 Build 0)  -->
<svg version="1.1" id="Layer_1" xmlns="http://www.w3.org/2000/svg" xmlns:xlink="http://www.w3.org/1999/xlink" x="0px" y="0px"
	 viewBox="0 0 24.8 20" style="enable-background:new 0 0 24.8 20;" xml:space="preserve">
<path d="M24.5,2.4c-0.9,0.4-1.9,0.7-2.9,0.8c1-0.6,1.8-1.6,2.2-2.8c-1,0.6-2,1-3.2,1.2c-0.9-1-2.2-1.6-3.7-1.6c-2.8,0-5,2.2-5,5
	c0,0.4,0,0.8,0.1,1.1C8,6,4.3,4,1.8,1C1.4,1.7,1.1,2.6,1.1,3.5c0,1.7,0.9,3.3,2.2,4.2c-0.8,0-1.6-0.3-2.3-0.6c0,0,0,0,0,0.1
	c0,2.4,1.7,4.4,4,4.9c-0.4,0.1-0.9,0.2-1.3,0.2c-0.3,0-0.6,0-0.9-0.1c0.6,2,2.5,3.4,4.7,3.5c-1.7,1.3-3.9,2.1-6.2,2.1
	c-0.4,0-0.8,0-1.2-0.1c2.2,1.4,4.8,2.2,7.7,2.2C17,19.9,22,12.3,22,5.7c0-0.2,0-0.4,0-0.6C23,4.3,23.8,3.4,24.5,2.4z"/>
</svg>
