<?xml version="1.0" encoding="utf-8"?>
<!-- Generator: Adobe Illustrator 21.1.0, SVG Export Plug-In . SVG Version: 6.00 Build 0)  -->
<svg version="1.1" id="Capa_1" xmlns="http://www.w3.org/2000/svg" xmlns:xlink="http://www.w3.org/1999/xlink" x="0px" y="0px"
	 viewBox="0 0 22.2 20" style="enable-background:new 0 0 22.2 20;" xml:space="preserve">
<g>
	<path d="M20.5,19.9H12c-0.7,0-1.4-0.6-1.4-1.4v-10c0-0.7,0.6-1.4,1.4-1.4h1.8l1-1l1.5,9.5l1.5-9.5l0.9,1h1.7c0.7,0,1.4,0.6,1.4,1.4
		v10C21.9,19.3,21.2,19.9,20.5,19.9z"/>
	<polygon points="16.1,6.6 16.5,6.6 16.9,7.2 16.6,7.4 17.1,13.1 16.7,15.9 15.3,15.7 16,7.4 15.7,7.1 	"/>
	<ellipse cx="16.3" cy="3.3" rx="2.7" ry="3"/>
</g>
<path d="M10.5,7.2c-0.3,0.2-0.3,0.9-0.3,0.9S9,8.1,6.1,8.1S3,8.4,2.8,8.8C2.6,9.2,1.9,11,1.9,11H10v6.3l-7.4,0.1l0,0.5
	c0,0,0-1.2,0,0s-0.7,1.1-0.7,1.1s0,0-0.9,0s-0.8-1-0.8-1s-0.1-4.2-0.1-5.1c0-0.9,0.3-1.5,0.3-1.5s0.8-1.9,1.3-3.1s1.6-1.1,1.6-1.1
	H10.5 M4.1,13.8c0-0.7-1.1-1.2-1.8-1.2c-0.7,0-0.6,0.5-0.6,1.2s0.5,0.8,1.2,0.8C3.6,14.6,4.1,14.4,4.1,13.8z"/>
</svg>
